Markers, signatures, pathways, and annotation • Shennong
…
Every final label remains linked to marker support, conflicts,
reference coverage, confidence, and provenance. LLM helpers can explain
this evidence but cannot replace the stored computational label. Review
uncertain assignments before using them as biological truth.

sn_review_annotation(pbmc, "pbmc_consensus")
#> $cells
#> # A tibble: 1,193 × 17
#>    cell    cluster prediction second_best_label prediction_score margin
#>    <chr>   <chr>   <chr>      <chr>                        <dbl>  <dbl>
#>  1 AAACAT… 0       ELP        Early lymphoid/T…            0.711 0.0364
#>  2 AAACAT… 3       Kidney-re… Naive B cells                0.726 0.0860
#>  3 AAACAT… 0       ELP        Early lymphoid/T…            0.711 0.0364
#>  4 AAACGC… 0       ELP        Early lymphoid/T…            0.711 0.0364
#>  5 AAACGC… 5       Monocytes  Myelocytes                   0.712 0.0385
#>  6 AAACTT… 3       Kidney-re… Naive B cells                0.726 0.0860
#>  7 AAAGAG… 0       ELP        Early lymphoid/T…            0.711 0.0364
#>  8 AAAGCC… 0       ELP        Early lymphoid/T…            0.711 0.0364
#>  9 AAAGGC… 3       Kidney-re… Naive B cells                0.726 0.0860
#> 10 AAAGTT… 3       Kidney-re… Naive B cells                0.726 0.0860
#> # ℹ 1,183 more rows
#> # ℹ 11 more variables: method_count <int>, methods <chr>,
#> #   low_confidence <lgl>, level_1 <chr>, level_2 <chr>, level_3 <chr>,
#> #   supporting_markers <chr>, conflicting_markers <chr>,
#> #   reference_coverage <dbl>, ontology_id <chr>, ontology_label <chr>
…
#> # A tibble: 5 × 16
#>   cluster prediction          second_best_label prediction_score margin
#>   <chr>   <chr>               <chr>                        <dbl>  <dbl>
#> 1 0       ELP                 Early lymphoid/T…            0.711 0.0364
#> 2 3       Kidney-resident ma… Naive B cells                0.726 0.0860
#> 3 5       Monocytes           Myelocytes                   0.712 0.0385
#> 4 7       Pre-pro-B cells     Early lymphoid/T…            0.719 0.0644
#> 5 8       Kidney-resident ma… Monocytes                    0.706 0.0200
#> # ℹ 11 more variables: method_count <int>, methods <chr>,
#> #   low_confidence <lgl>, level_1 <chr>, level_2 <chr>, level_3 <chr>,
#> #   supporting_markers <chr>, conflicting_markers <chr>,
#> #   reference_coverage <dbl>, ontology_id <chr>, ontology_label <chr>
#> 
#> $evidence
#> # A tibble: 980 × 8
#>    entity label          parent_label   score method supporting_markers
#>    <chr>  <chr>          <chr>          <dbl> <chr>  <chr>             
#>  1 0      Age-associate… B cells      0.00528 marke… TBX21;FCRL2;ITGAX 
#>  2 0      Alveolar macr… Macrophages  0       marke… GPNMB;TREM2;BHLHE…
#>  3 0      B cells        B cells      0.0190  marke… CD79A;MS4A1;CD19  
#>  4 0      CD16- NK cells ILC          0.0662  marke… NKG7;GNLY;CD160   
#>  5 0      CD16+ NK cells ILC          0.0731  marke… NKG7;GNLY;FCGR3A  
#>  6 0      CD8a/a         T cells      0.0162  marke… PDCD1;ZNF683;GNG4 
#>  7 0      CD8a/b(entry)  T cells      0.0607  marke… SATB1;TOX2;CCR9   
#>  8 0      Classical mon… Monocytes    0.0455  marke… S100A9;CD14;S100A…
#>  9 0      CMP            HSC/MPP      0       marke… MPO;CTSG;FLT3     
#> 10 0      CRTAM+ gamma-… T cells      0.0216  marke… IKZF2;TRDC;ITGAD  
#> # ℹ 970 more rows
#> # ℹ 2 more variables: conflicting_markers <chr>,
#> #   reference_coverage <dbl>
…
