Layer-aware workflows • Shennong
…
  de_name = "cluster_markers",
  top_n = 3,
  with_metadata = TRUE
)
#> $schema_version
#> [1] "1.0.0"
#> 
#> $package_version
#> [1] "0.1.4"
#> 
#> $created_at
#> [1] "2026-05-05 20:34:21 UTC"
#> 
#> $table
#> # A tibble: 1,004 × 7
#>       p_val avg_log2FC pct.1 pct.2 p_val_adj cluster gene  
#>       <dbl>      <dbl> <dbl> <dbl>     <dbl> <fct>   <chr> 
#>  1 3.25e-64      5.86  0.872 0.038  3.25e-61 0       CST7  
#>  2 8.30e-61      6.67  0.802 0.022  8.30e-58 0       GZMA  
#>  3 1.49e-60      6.65  0.93  0.102  1.49e-57 0       NKG7  
#>  4 2.17e-57      4.30  0.965 0.131  2.17e-54 0       CCL5  
#>  5 4.56e-43      4.66  0.826 0.143  4.56e-40 0       CTSW  
#>  6 2.57e-36      6.11  0.57  0.035  2.57e-33 0       PRF1  
#>  7 5.96e-32      6.91  0.453 0.013  5.96e-29 0       GZMK  
#>  8 4.57e-31      8.48  0.43  0.01   4.57e-28 0       FGFBP2
#>  9 3.88e-30      0.999 1     0.997  3.88e-27 0       B2M   
#> 10 3.80e-28      7.81  0.384 0.006  3.80e-25 0       GZMH  
#> # ℹ 994 more rows
…
