List Shennong runtime and recommended R package dependencies — sn_list_dependencies • Shennong
…
#>   plot.roc spatstat.explore
#> 
#> 
head(deps)
#> # A tibble: 6 × 7
#>   package      requirement declared_in source  remote installed version
#>   <chr>        <chr>       <chr>       <chr>   <chr>  <lgl>     <chr>  
#> 1 AUCell       recommended Suggests    CRAN    NA     FALSE     NA     
#> 2 BPCells      recommended Suggests    GitHub  bnprk… FALSE     NA     
#> 3 Banksy       recommended Suggests    Biocon… NA     FALSE     NA     
#> 4 BayesPrism   recommended Suggests    GitHub  Danko… FALSE     NA     
#> 5 BiocManager  recommended Suggests    CRAN    NA     FALSE     NA     
#> 6 BiocParallel recommended Suggests    Biocon… NA     TRUE      1.46.0 
subset(deps, !installed & requirement == "recommended")
#> # A tibble: 47 × 7
#>    package     requirement declared_in source  remote installed version
#>    <chr>       <chr>       <chr>       <chr>   <chr>  <lgl>     <chr>  
#>  1 AUCell      recommended Suggests    CRAN    NA     FALSE     NA     
#>  2 BPCells     recommended Suggests    GitHub  bnprk… FALSE     NA     
#>  3 Banksy      recommended Suggests    Biocon… NA     FALSE     NA     
#>  4 BayesPrism  recommended Suggests    GitHub  Danko… FALSE     NA     
#>  5 BiocManager recommended Suggests    CRAN    NA     FALSE     NA     
#>  6 CellChat    recommended Suggests    GitHub  jinwo… FALSE     NA     
#>  7 Coralysis   recommended Suggests    Biocon… NA     FALSE     NA     
#>  8 Coralysis2  recommended Suggests    CRAN    NA     FALSE     NA     
#>  9 GENIE3      recommended Suggests    Biocon… NA     FALSE     NA     
#> 10 GSVA        recommended Suggests    CRAN    NA     FALSE     NA     
#> # ℹ 37 more rows
…
